…
``` r
# What is the number and percentage of missing values grouped by
# each observation?

miss_case_summary(cholera)
```

    ## # A tibble: 4,238 × 3
    ##     case n_miss pct_miss
    ##    <int>  <int>    <dbl>
    ##  1    34      1     11.1
    ##  2    37      1     11.1
    ##  3    50      1     11.1
    ##  4    73      1     11.1
    ##  5    78      1     11.1
    ##  6   185      1     11.1
    ##  7   194      1     11.1
    ##  8   214      1     11.1
    ##  9   246      1     11.1
    ## 10   294      1     11.1
    ## # ℹ 4,228 more rows
…
``` r
# What is the number and percentage of missing values grouped by
# each observation?

miss_case_summary(cholera_imputed)
```

    ## # A tibble: 4,238 × 3
    ##     case n_miss pct_miss
    ##    <int>  <int>    <dbl>
    ##  1     1      0        0
    ##  2     2      0        0
    ##  3     3      0        0
    ##  4     4      0        0
    ##  5     5      0        0
    ##  6     6      0        0
    ##  7     7      0        0
    ##  8     8      0        0
    ##  9     9      0        0
    ## 10    10      0        0
    ## # ℹ 4,228 more rows
…
